EESchema Schematic File Version 2
LIBS:power
LIBS:device
LIBS:74xgxx
LIBS:ac-dc
LIBS:actel
LIBS:allegro
LIBS:Altera
LIBS:analog_devices
LIBS:battery_management
LIBS:bbd
LIBS:bosch
LIBS:brooktre
LIBS:cmos_ieee
LIBS:dc-dc
LIBS:diode
LIBS:elec-unifil
LIBS:ESD_Protection
LIBS:ftdi
LIBS:gennum
LIBS:graphic
LIBS:hc11
LIBS:ir
LIBS:Lattice
LIBS:leds
LIBS:logo
LIBS:maxim
LIBS:mechanical
LIBS:microchip_dspic33dsc
LIBS:microchip_pic10mcu
LIBS:microchip_pic12mcu
LIBS:microchip_pic16mcu
LIBS:microchip_pic18mcu
LIBS:microchip_pic24mcu
LIBS:microchip_pic32mcu
LIBS:modules
LIBS:motor_drivers
LIBS:motors
LIBS:msp430
LIBS:nordicsemi
LIBS:nxp
LIBS:nxp_armmcu
LIBS:onsemi
LIBS:Oscillators
LIBS:powerint
LIBS:Power_Management
LIBS:pspice
LIBS:references
LIBS:relays
LIBS:rfcom
LIBS:sensors
LIBS:silabs
LIBS:SparkFun
LIBS:stm8
LIBS:stm32
LIBS:supertex
LIBS:switches
LIBS:transf
LIBS:triac_thyristor
LIBS:ttl_ieee
LIBS:video
LIBS:wiznet
LIBS:Worldsemi
LIBS:Xicor
LIBS:zetex
LIBS:Zilog
LIBS:transistors
LIBS:conn
LIBS:linear
LIBS:regul
LIBS:74xx
LIBS:cmos4000
LIBS:adc-dac
LIBS:memory
LIBS:xilinx
LIBS:microcontrollers
LIBS:dsp
LIBS:microchip
LIBS:analog_switches
LIBS:motorola
LIBS:texas
LIBS:intel
LIBS:audio
LIBS:interface
LIBS:digital-audio
LIBS:philips
LIBS:display
LIBS:cypress
LIBS:siliconi
LIBS:opto
LIBS:atmel
LIBS:contrib
LIBS:valves
LIBS:push_button
LIBS:tda3663
LIBS:sn74ls174n
LIBS:Symbols_DCDC-ACDC-Converter_RevC_20Jul2012
LIBS:Symbols_EN60617_13Mar2013
LIBS:Symbols_EN60617-10_HF-Radio_DRAFT_12Sep2013
LIBS:Symbols_ICs-Diskrete_RevD10
LIBS:Symbols_ICs-Opto_RevB_16Sep2013
LIBS:Symbols_Microcontroller_Philips-NXP_RevA_06Oct2013
LIBS:SymbolsSimilarEN60617+oldDIN617-RevE8
LIBS:Symbols_Socket-DIN41612_RevA
LIBS:Symbols_Transformer-Diskrete_RevA
LIBS:beernarywatch-cache
EELAYER 25 0
EELAYER END
$Descr A4 11693 8268
encoding utf-8
Sheet 1 1
Title ""
Date ""
Rev ""
Comp ""
Comment1 ""
Comment2 ""
Comment3 ""
Comment4 ""
$EndDescr
$Comp
L GND #PWR01
U 1 1 59AAEA7E
P 1550 4350
F 0 "#PWR01" H 1550 4100 50  0001 C CNN
F 1 "GND" H 1550 4200 50  0000 C CNN
F 2 "" H 1550 4350 50  0001 C CNN
F 3 "" H 1550 4350 50  0001 C CNN
	1    1550 4350
	1    0    0    -1  
$EndComp
$Comp
L LM78M05CT U1
U 1 1 59AAEAC9
P 2500 1050
F 0 "U1" H 2300 1250 50  0000 C CNN
F 1 "LM78M05CT" H 2500 1250 50  0000 L CNN
F 2 "TO_SOT_Packages_THT:TO-220_Horizontal" H 2500 1150 50  0001 C CIN
F 3 "" H 2500 1050 50  0001 C CNN
	1    2500 1050
	1    0    0    -1  
$EndComp
$Comp
L GND #PWR02
U 1 1 59AAEB14
P 2500 1500
F 0 "#PWR02" H 2500 1250 50  0001 C CNN
F 1 "GND" H 2500 1350 50  0000 C CNN
F 2 "" H 2500 1500 50  0001 C CNN
F 3 "" H 2500 1500 50  0001 C CNN
	1    2500 1500
	1    0    0    -1  
$EndComp
$Comp
L C C4
U 1 1 59AAEB2E
P 1950 1150
F 0 "C4" H 1975 1250 50  0000 L CNN
F 1 "330nF" H 1975 1050 50  0000 L CNN
F 2 "Capacitors_THT:C_Rect_L13.0mm_W3.0mm_P10.00mm_FKS3_FKP3_MKS4" H 1988 1000 50  0001 C CNN
F 3 "" H 1950 1150 50  0001 C CNN
	1    1950 1150
	1    0    0    -1  
$EndComp
$Comp
L C C5
U 1 1 59AAEB9A
P 3050 1150
F 0 "C5" H 3075 1250 50  0000 L CNN
F 1 "100nF" H 3075 1050 50  0000 L CNN
F 2 "Capacitors_THT:C_Disc_D5.0mm_W2.5mm_P5.00mm" H 3088 1000 50  0001 C CNN
F 3 "" H 3050 1150 50  0001 C CNN
	1    3050 1150
	1    0    0    -1  
$EndComp
$Comp
L +5V #PWR03
U 1 1 59AAEBF5
P 3050 900
F 0 "#PWR03" H 3050 750 50  0001 C CNN
F 1 "+5V" H 3050 1040 50  0000 C CNN
F 2 "" H 3050 900 50  0001 C CNN
F 3 "" H 3050 900 50  0001 C CNN
	1    3050 900 
	1    0    0    -1  
$EndComp
$Comp
L Crystal Y1
U 1 1 59AAED7D
P 5100 2600
F 0 "Y1" H 5100 2750 50  0000 C CNN
F 1 "16MHz" H 5100 2450 50  0000 C CNN
F 2 "Crystals:Resonator-2pin_w10.0mm_h5.0mm" H 5100 2600 50  0001 C CNN
F 3 "" H 5100 2600 50  0001 C CNN
	1    5100 2600
	0    -1   -1   0   
$EndComp
$Comp
L R R4
U 1 1 59AAEF53
P 4750 2600
F 0 "R4" V 4830 2600 50  0000 C CNN
F 1 "1M" V 4750 2600 50  0000 C CNN
F 2 "Resistors_THT:R_Axial_DIN0204_L3.6mm_D1.6mm_P2.54mm_Vertical" V 4680 2600 50  0001 C CNN
F 3 "" H 4750 2600 50  0001 C CNN
	1    4750 2600
	1    0    0    -1  
$EndComp
$Comp
L C C8
U 1 1 59AAF00C
P 5250 2250
F 0 "C8" H 5275 2350 50  0000 L CNN
F 1 "22pF" H 5275 2150 50  0000 L CNN
F 2 "Capacitors_THT:C_Disc_D4.7mm_W2.5mm_P5.00mm" H 5288 2100 50  0001 C CNN
F 3 "" H 5250 2250 50  0001 C CNN
	1    5250 2250
	0    1    1    0   
$EndComp
$Comp
L C C9
U 1 1 59AAF0A3
P 5250 2900
F 0 "C9" H 5275 3000 50  0000 L CNN
F 1 "22pF" H 5275 2800 50  0000 L CNN
F 2 "Capacitors_THT:C_Disc_D4.7mm_W2.5mm_P5.00mm" H 5288 2750 50  0001 C CNN
F 3 "" H 5250 2900 50  0001 C CNN
	1    5250 2900
	0    1    1    0   
$EndComp
$Comp
L GND #PWR04
U 1 1 59AAF0DC
P 5400 2600
F 0 "#PWR04" H 5400 2350 50  0001 C CNN
F 1 "GND" H 5400 2450 50  0000 C CNN
F 2 "" H 5400 2600 50  0001 C CNN
F 3 "" H 5400 2600 50  0001 C CNN
	1    5400 2600
	0    -1   -1   0   
$EndComp
$Comp
L +5V #PWR05
U 1 1 59AAF65C
P 3650 4850
F 0 "#PWR05" H 3650 4700 50  0001 C CNN
F 1 "+5V" H 3650 4990 50  0000 C CNN
F 2 "" H 3650 4850 50  0001 C CNN
F 3 "" H 3650 4850 50  0001 C CNN
	1    3650 4850
	1    0    0    -1  
$EndComp
$Comp
L R R3
U 1 1 59AAF6B9
P 3650 5100
F 0 "R3" V 3730 5100 50  0000 C CNN
F 1 "10k" V 3650 5100 50  0000 C CNN
F 2 "Resistors_THT:R_Axial_DIN0411_L9.9mm_D3.6mm_P12.70mm_Horizontal" V 3580 5100 50  0001 C CNN
F 3 "" H 3650 5100 50  0001 C CNN
	1    3650 5100
	1    0    0    -1  
$EndComp
$Comp
L D D1
U 1 1 59AAF703
P 3950 5100
F 0 "D1" H 3950 5200 50  0000 C CNN
F 1 "D" H 3950 5000 50  0000 C CNN
F 2 "Diodes_THT:D_DO-35_SOD27_P7.62mm_Horizontal" H 3950 5100 50  0001 C CNN
F 3 "" H 3950 5100 50  0001 C CNN
	1    3950 5100
	0    1    1    0   
$EndComp
Text GLabel 4250 5350 3    60   Input ~ 0
RESET
Text GLabel 3750 3400 2    60   Input ~ 0
RESET
$Comp
L C C1
U 1 1 59AAFA56
P 900 2100
F 0 "C1" H 925 2200 50  0000 L CNN
F 1 "100nF" H 925 2000 50  0000 L CNN
F 2 "Capacitors_THT:C_Disc_D5.0mm_W2.5mm_P5.00mm" H 938 1950 50  0001 C CNN
F 3 "" H 900 2100 50  0001 C CNN
	1    900  2100
	1    0    0    -1  
$EndComp
$Comp
L +5V #PWR06
U 1 1 59AAFB39
P 600 1900
F 0 "#PWR06" H 600 1750 50  0001 C CNN
F 1 "+5V" H 600 2040 50  0000 C CNN
F 2 "" H 600 1900 50  0001 C CNN
F 3 "" H 600 1900 50  0001 C CNN
	1    600  1900
	1    0    0    -1  
$EndComp
$Comp
L C C2
U 1 1 59AAFB9C
P 1300 2700
F 0 "C2" H 1325 2800 50  0000 L CNN
F 1 "100nF" H 1325 2600 50  0000 L CNN
F 2 "Capacitors_THT:C_Disc_D5.0mm_W2.5mm_P5.00mm" H 1338 2550 50  0001 C CNN
F 3 "" H 1300 2700 50  0001 C CNN
	1    1300 2700
	1    0    0    -1  
$EndComp
$Comp
L GND #PWR07
U 1 1 59AAFC02
P 1300 2850
F 0 "#PWR07" H 1300 2600 50  0001 C CNN
F 1 "GND" H 1300 2700 50  0000 C CNN
F 2 "" H 1300 2850 50  0001 C CNN
F 3 "" H 1300 2850 50  0001 C CNN
	1    1300 2850
	1    0    0    -1  
$EndComp
$Comp
L GND #PWR08
U 1 1 59AAFD12
P 900 2250
F 0 "#PWR08" H 900 2000 50  0001 C CNN
F 1 "GND" H 900 2100 50  0000 C CNN
F 2 "" H 900 2250 50  0001 C CNN
F 3 "" H 900 2250 50  0001 C CNN
	1    900  2250
	1    0    0    -1  
$EndComp
$Comp
L push_button B1
U 1 1 59AB08D5
P 4800 5350
F 0 "B1" H 4800 5750 60  0000 C CNN
F 1 "push_button" H 4800 5200 60  0000 C CNN
F 2 "Buttons_Switches_THT:SW_PUSH_6mm" H 4800 5350 60  0001 C CNN
F 3 "" H 4800 5350 60  0001 C CNN
	1    4800 5350
	1    0    0    -1  
$EndComp
$Comp
L GND #PWR09
U 1 1 59AB0BBA
P 5250 5350
F 0 "#PWR09" H 5250 5100 50  0001 C CNN
F 1 "GND" H 5250 5200 50  0000 C CNN
F 2 "" H 5250 5350 50  0001 C CNN
F 3 "" H 5250 5350 50  0001 C CNN
	1    5250 5350
	1    0    0    -1  
$EndComp
$Comp
L CONN_02X04 J3
U 1 1 59AB0D81
P 2250 5000
F 0 "J3" H 2250 5250 50  0000 C CNN
F 1 "CONN_02X04" H 2250 4750 50  0000 C CNN
F 2 "Pin_Headers:Pin_Header_Straight_2x04_Pitch2.54mm" H 2250 3800 50  0001 C CNN
F 3 "" H 2250 3800 50  0001 C CNN
	1    2250 5000
	1    0    0    -1  
$EndComp
Text Notes 650  5500 0    60   ~ 0
nRF24L01+\n1 GND\n2 VCC\n3 CE -- D9\n4 CSN -- D10\n5 SCK -- D13\n6 MOSI -- D11\n7 MISO -- D12\n8 IRQ -- D2
Text GLabel 2000 4950 0    60   Output ~ 0
CE/OUT1
$Comp
L GND #PWR010
U 1 1 59AB1610
P 1850 4850
F 0 "#PWR010" H 1850 4600 50  0001 C CNN
F 1 "GND" H 1850 4700 50  0000 C CNN
F 2 "" H 1850 4850 50  0001 C CNN
F 3 "" H 1850 4850 50  0001 C CNN
	1    1850 4850
	0    1    1    0   
$EndComp
$Comp
L TDA3663 U3
U 1 1 59AB1CE3
P 5200 1100
F 0 "U3" H 5200 1400 60  0000 C CNN
F 1 "TDA3663" H 5400 950 60  0000 C CNN
F 2 "TO_SOT_Packages_SMD:SOT-223-3Lead_TabPin2" H 5250 1500 60  0001 C CNN
F 3 "" H 5150 1100 60  0001 C CNN
	1    5200 1100
	1    0    0    -1  
$EndComp
$Comp
L +3.3V #PWR011
U 1 1 59AB1FCD
P 5700 900
F 0 "#PWR011" H 5700 750 50  0001 C CNN
F 1 "+3.3V" H 5700 1040 50  0000 C CNN
F 2 "" H 5700 900 50  0001 C CNN
F 3 "" H 5700 900 50  0001 C CNN
	1    5700 900 
	1    0    0    -1  
$EndComp
$Comp
L GND #PWR012
U 1 1 59AB2049
P 5200 1450
F 0 "#PWR012" H 5200 1200 50  0001 C CNN
F 1 "GND" H 5200 1300 50  0000 C CNN
F 2 "" H 5200 1450 50  0001 C CNN
F 3 "" H 5200 1450 50  0001 C CNN
	1    5200 1450
	1    0    0    -1  
$EndComp
$Comp
L +3.3V #PWR013
U 1 1 59AB2155
P 2650 4800
F 0 "#PWR013" H 2650 4650 50  0001 C CNN
F 1 "+3.3V" H 2650 4940 50  0000 C CNN
F 2 "" H 2650 4800 50  0001 C CNN
F 3 "" H 2650 4800 50  0001 C CNN
	1    2650 4800
	1    0    0    -1  
$EndComp
Text GLabel 2500 4950 2    60   Input ~ 0
CSN
Text GLabel 2000 5050 0    60   Output ~ 0
SCK/OUT5
Text GLabel 2500 5050 2    60   Output ~ 0
MOSI/OUT3
Text GLabel 2000 5150 0    60   Output ~ 0
MISO/OUT4
Text GLabel 2500 5150 2    60   Output ~ 0
IRQ
Text GLabel 4100 2050 2    60   Output ~ 0
CE/OUT1
Text GLabel 4100 2450 2    60   Output ~ 0
SCK/OUT5
Text GLabel 4100 2150 2    60   Output ~ 0
CSN
Text GLabel 4100 2250 2    60   Output ~ 0
MOSI/OUT3
Text GLabel 4100 2350 2    60   Output ~ 0
MISO/OUT4
Text GLabel 3750 3750 2    60   BiDi ~ 0
IRQ
$Comp
L SN74LS174N C3
U 1 1 59AB35FD
P 1600 6900
F 0 "C3" H 1400 7400 60  0000 C CNN
F 1 "SN74LS174N" H 1600 6500 60  0000 C CNN
F 2 "Housings_DIP:DIP-16_W7.62mm_Socket" H 1700 6800 60  0001 C CNN
F 3 "" H 1700 6800 60  0001 C CNN
	1    1600 6900
	1    0    0    -1  
$EndComp
$Comp
L SN74LS174N C6
U 1 1 59AB36A2
P 3650 6950
F 0 "C6" H 3450 7450 60  0000 C CNN
F 1 "SN74LS174N" H 3650 6550 60  0000 C CNN
F 2 "Housings_DIP:DIP-16_W7.62mm_Socket" H 3750 6850 60  0001 C CNN
F 3 "" H 3750 6850 60  0001 C CNN
	1    3650 6950
	1    0    0    -1  
$EndComp
$Comp
L SN74LS174N C11
U 1 1 59AB3743
P 5750 6950
F 0 "C11" H 5550 7450 60  0000 C CNN
F 1 "SN74LS174N" H 5750 6550 60  0000 C CNN
F 2 "Housings_DIP:DIP-16_W7.62mm_Socket" H 5850 6850 60  0001 C CNN
F 3 "" H 5850 6850 60  0001 C CNN
	1    5750 6950
	1    0    0    -1  
$EndComp
$Comp
L CONN_02X20 J5
U 1 1 59AB382D
P 10750 1700
F 0 "J5" H 10750 2750 50  0000 C CNN
F 1 "CONN_02X20" V 10750 1700 50  0000 C CNN
F 2 "Pin_Headers:Pin_Header_Straight_2x20_Pitch2.54mm" H 10750 750 50  0001 C CNN
F 3 "" H 10750 750 50  0001 C CNN
	1    10750 1700
	1    0    0    -1  
$EndComp
$Comp
L +5V #PWR014
U 1 1 59AB4D30
P 2200 6450
F 0 "#PWR014" H 2200 6300 50  0001 C CNN
F 1 "+5V" H 2200 6590 50  0000 C CNN
F 2 "" H 2200 6450 50  0001 C CNN
F 3 "" H 2200 6450 50  0001 C CNN
	1    2200 6450
	1    0    0    -1  
$EndComp
$Comp
L +5V #PWR015
U 1 1 59AB4D7B
P 4250 6500
F 0 "#PWR015" H 4250 6350 50  0001 C CNN
F 1 "+5V" H 4250 6640 50  0000 C CNN
F 2 "" H 4250 6500 50  0001 C CNN
F 3 "" H 4250 6500 50  0001 C CNN
	1    4250 6500
	1    0    0    -1  
$EndComp
$Comp
L +5V #PWR016
U 1 1 59AB4E1E
P 6350 6500
F 0 "#PWR016" H 6350 6350 50  0001 C CNN
F 1 "+5V" H 6350 6640 50  0000 C CNN
F 2 "" H 6350 6500 50  0001 C CNN
F 3 "" H 6350 6500 50  0001 C CNN
	1    6350 6500
	1    0    0    -1  
$EndComp
$Comp
L GND #PWR017
U 1 1 59AB4E62
P 5200 7300
F 0 "#PWR017" H 5200 7050 50  0001 C CNN
F 1 "GND" H 5200 7150 50  0000 C CNN
F 2 "" H 5200 7300 50  0001 C CNN
F 3 "" H 5200 7300 50  0001 C CNN
	1    5200 7300
	1    0    0    -1  
$EndComp
$Comp
L GND #PWR018
U 1 1 59AB4EA6
P 3100 7300
F 0 "#PWR018" H 3100 7050 50  0001 C CNN
F 1 "GND" H 3100 7150 50  0000 C CNN
F 2 "" H 3100 7300 50  0001 C CNN
F 3 "" H 3100 7300 50  0001 C CNN
	1    3100 7300
	1    0    0    -1  
$EndComp
$Comp
L GND #PWR019
U 1 1 59AB4EEA
P 1050 7250
F 0 "#PWR019" H 1050 7000 50  0001 C CNN
F 1 "GND" H 1050 7100 50  0000 C CNN
F 2 "" H 1050 7250 50  0001 C CNN
F 3 "" H 1050 7250 50  0001 C CNN
	1    1050 7250
	1    0    0    -1  
$EndComp
Text GLabel 950  6500 0    60   Input ~ 0
RESET
Text GLabel 3000 6550 0    60   Input ~ 0
RESET
Text GLabel 5100 6550 0    60   Input ~ 0
RESET
Text GLabel 4100 1950 2    60   Output ~ 0
OUT0
Text GLabel 4750 4050 2    60   Output ~ 0
CLK0
Text GLabel 4750 4150 2    60   Output ~ 0
CLK1
Text GLabel 3700 2800 2    60   Input ~ 0
AIN0
Text GLabel 3700 2900 2    60   Input ~ 0
AIN1
Text GLabel 3700 3000 2    60   Input ~ 0
AIN2
Text GLabel 3700 3100 2    60   Input ~ 0
AIN3
Text GLabel 3700 3200 2    60   Input ~ 0
AIN4
Text GLabel 3700 3300 2    60   Input ~ 0
AIN5
Text GLabel 4750 4250 2    60   Output ~ 0
CLK2
Text GLabel 6200 7250 2    60   Input ~ 0
CLK0
Text GLabel 4100 7250 2    60   Input ~ 0
CLK1
Text GLabel 2050 7200 2    60   Input ~ 0
CLK2
Text GLabel 3750 3550 2    60   Input ~ 0
UART_RX
Text GLabel 3750 3650 2    60   Output ~ 0
UART_TX
$Comp
L CONN_01X04 J2
U 1 1 59AB967A
P 1350 5800
F 0 "J2" H 1350 6050 50  0000 C CNN
F 1 "CONN_01X04" V 1450 5800 50  0000 C CNN
F 2 "Pin_Headers:Pin_Header_Straight_1x04_Pitch2.54mm" H 1350 5800 50  0001 C CNN
F 3 "" H 1350 5800 50  0001 C CNN
	1    1350 5800
	1    0    0    1   
$EndComp
Text GLabel 1000 5750 0    60   Input ~ 0
UART_RX
Text GLabel 1000 5850 0    60   Output ~ 0
UART_TX
$Comp
L GND #PWR020
U 1 1 59AB9A6F
P 1000 5950
F 0 "#PWR020" H 1000 5700 50  0001 C CNN
F 1 "GND" H 1000 5800 50  0000 C CNN
F 2 "" H 1000 5950 50  0001 C CNN
F 3 "" H 1000 5950 50  0001 C CNN
	1    1000 5950
	1    0    0    -1  
$EndComp
Text GLabel 1000 5650 0    60   Input ~ 0
RESET
Text GLabel 4650 3950 2    60   Output ~ 0
OUT2
Text GLabel 1150 6700 0    60   Input ~ 0
OUT0
Text GLabel 3200 6750 0    60   Input ~ 0
OUT0
Text GLabel 5300 6750 0    60   Input ~ 0
OUT0
Text GLabel 1150 6800 0    60   Input ~ 0
CE/OUT1
Text GLabel 3200 6850 0    60   Input ~ 0
CE/OUT1
Text GLabel 5300 6850 0    60   Input ~ 0
CE/OUT1
Text GLabel 1150 7000 0    60   Input ~ 0
OUT2
Text GLabel 3200 7050 0    60   Input ~ 0
OUT2
Text GLabel 5300 7050 0    60   Input ~ 0
OUT2
Text GLabel 2050 7000 2    60   Input ~ 0
MOSI/OUT3
Text GLabel 4100 7050 2    60   Input ~ 0
MOSI/OUT3
Text GLabel 6200 7050 2    60   Input ~ 0
MOSI/OUT3
Text GLabel 2050 6800 2    60   Input ~ 0
MISO/OUT4
Text GLabel 4100 6850 2    60   Input ~ 0
MISO/OUT4
Text GLabel 6200 6850 2    60   Input ~ 0
MISO/OUT4
Text GLabel 2050 6700 2    60   Input ~ 0
SCK/OUT5
Text GLabel 4100 6750 2    60   Input ~ 0
SCK/OUT5
Text GLabel 6200 6750 2    60   Input ~ 0
SCK/OUT5
$Comp
L BC547 Q4
U 1 1 59AC1283
P 6850 1250
F 0 "Q4" H 7050 1325 50  0000 L CNN
F 1 "BC547" H 7050 1250 50  0000 L CNN
F 2 "TO_SOT_Packages_THT:TO-92_Molded_Narrow" H 7050 1175 50  0001 L CIN
F 3 "" H 6850 1250 50  0001 L CNN
	1    6850 1250
	1    0    0    -1  
$EndComp
Text GLabel 1150 6600 0    60   Output ~ 0
LED20b
$Comp
L R R11
U 1 1 59AC1865
P 6500 1250
F 0 "R11" V 6580 1250 50  0000 C CNN
F 1 "100k" V 6500 1250 50  0000 C CNN
F 2 "Resistors_THT:R_Axial_DIN0309_L9.0mm_D3.2mm_P12.70mm_Horizontal" V 6430 1250 50  0001 C CNN
F 3 "" H 6500 1250 50  0001 C CNN
	1    6500 1250
	0    1    1    0   
$EndComp
$Comp
L R R14
U 1 1 59AC1B9A
P 6950 900
F 0 "R14" V 7030 900 50  0000 C CNN
F 1 "100" V 6950 900 50  0000 C CNN
F 2 "Resistors_THT:R_Axial_DIN0309_L9.0mm_D3.2mm_P12.70mm_Horizontal" V 6880 900 50  0001 C CNN
F 3 "" H 6950 900 50  0001 C CNN
	1    6950 900 
	-1   0    0    1   
$EndComp
$Comp
L +5V #PWR021
U 1 1 59AC1FAE
P 11100 650
F 0 "#PWR021" H 11100 500 50  0001 C CNN
F 1 "+5V" H 11100 790 50  0000 C CNN
F 2 "" H 11100 650 50  0001 C CNN
F 3 "" H 11100 650 50  0001 C CNN
	1    11100 650 
	1    0    0    -1  
$EndComp
Text GLabel 6350 1250 0    60   Input ~ 0
LED00b
$Comp
L GND #PWR022
U 1 1 59AC2637
P 6950 1450
F 0 "#PWR022" H 6950 1200 50  0001 C CNN
F 1 "GND" H 6950 1300 50  0000 C CNN
F 2 "" H 6950 1450 50  0001 C CNN
F 3 "" H 6950 1450 50  0001 C CNN
	1    6950 1450
	1    0    0    -1  
$EndComp
Text Label 10150 750  0    60   ~ 0
LED00
Text Label 6950 700  0    60   ~ 0
LED00
$Comp
L BC547 Q10
U 1 1 59AC385D
P 8200 1250
F 0 "Q10" H 8400 1325 50  0000 L CNN
F 1 "BC547" H 8400 1250 50  0000 L CNN
F 2 "TO_SOT_Packages_THT:TO-92_Molded_Narrow" H 8400 1175 50  0001 L CIN
F 3 "" H 8200 1250 50  0001 L CNN
	1    8200 1250
	1    0    0    -1  
$EndComp
$Comp
L R R23
U 1 1 59AC3863
P 7850 1250
F 0 "R23" V 7930 1250 50  0000 C CNN
F 1 "100k" V 7850 1250 50  0000 C CNN
F 2 "Resistors_THT:R_Axial_DIN0309_L9.0mm_D3.2mm_P12.70mm_Horizontal" V 7780 1250 50  0001 C CNN
F 3 "" H 7850 1250 50  0001 C CNN
	1    7850 1250
	0    1    1    0   
$EndComp
$Comp
L R R26
U 1 1 59AC3869
P 8300 900
F 0 "R26" V 8380 900 50  0000 C CNN
F 1 "100" V 8300 900 50  0000 C CNN
F 2 "Resistors_THT:R_Axial_DIN0309_L9.0mm_D3.2mm_P12.70mm_Horizontal" V 8230 900 50  0001 C CNN
F 3 "" H 8300 900 50  0001 C CNN
	1    8300 900 
	-1   0    0    1   
$EndComp
Text GLabel 7700 1250 0    60   Input ~ 0
LED01b
$Comp
L GND #PWR023
U 1 1 59AC3870
P 8300 1450
F 0 "#PWR023" H 8300 1200 50  0001 C CNN
F 1 "GND" H 8300 1300 50  0000 C CNN
F 2 "" H 8300 1450 50  0001 C CNN
F 3 "" H 8300 1450 50  0001 C CNN
	1    8300 1450
	1    0    0    -1  
$EndComp
Text GLabel 1150 6900 0    60   Output ~ 0
LED21b
Text GLabel 1150 7100 0    60   Output ~ 0
LED22b
Text GLabel 2050 7100 2    60   Output ~ 0
LED23b
Text GLabel 2050 6900 2    60   Output ~ 0
LED24b
Text GLabel 2050 6600 2    60   Output ~ 0
LED25b
Text GLabel 3200 6650 0    60   Output ~ 0
LED10b
Text GLabel 3200 6950 0    60   Output ~ 0
LED11b
Text GLabel 3200 7150 0    60   Output ~ 0
LED12b
Text GLabel 4100 7150 2    60   Output ~ 0
LED13b
Text GLabel 4100 6950 2    60   Output ~ 0
LED14b
Text GLabel 4100 6650 2    60   Output ~ 0
LED15b
Text GLabel 5300 6650 0    60   Output ~ 0
LED00b
Text GLabel 5300 6950 0    60   Output ~ 0
LED01b
Text GLabel 5300 7150 0    60   Output ~ 0
LED02b
Text GLabel 6200 7150 2    60   Output ~ 0
LED03b
Text GLabel 6200 6950 2    60   Output ~ 0
LED04b
Text GLabel 6200 6650 2    60   Output ~ 0
LED05b
Text Label 10150 850  0    60   ~ 0
LED01
Text Label 10150 950  0    60   ~ 0
LED02
Text Label 10150 1050 0    60   ~ 0
LED03
Text Label 10150 1150 0    60   ~ 0
LED04
Text Label 10150 1250 0    60   ~ 0
LED05
Text Label 10150 1350 0    60   ~ 0
LED10
NoConn ~ 10500 1650
Text Label 10150 1450 0    60   ~ 0
LED11
Text Label 10150 1550 0    60   ~ 0
LED12
Text Label 10150 1750 0    60   ~ 0
LED13
Text Label 10150 1850 0    60   ~ 0
LED14
Text Label 10150 1950 0    60   ~ 0
LED15
Text Label 10150 2050 0    60   ~ 0
LED20
Text Label 10150 2150 0    60   ~ 0
LED21
Text Label 10150 2250 0    60   ~ 0
LED22
Text Label 10150 2350 0    60   ~ 0
LED23
Text Label 10150 2450 0    60   ~ 0
LED24
Text Label 10150 2550 0    60   ~ 0
LED25
NoConn ~ 10500 2650
Text Label 8300 700  0    60   ~ 0
LED01
$Comp
L BC547 Q16
U 1 1 59AC77BA
P 9550 1250
F 0 "Q16" H 9750 1325 50  0000 L CNN
F 1 "BC547" H 9750 1250 50  0000 L CNN
F 2 "TO_SOT_Packages_THT:TO-92_Molded_Narrow" H 9750 1175 50  0001 L CIN
F 3 "" H 9550 1250 50  0001 L CNN
	1    9550 1250
	1    0    0    -1  
$EndComp
$Comp
L R R35
U 1 1 59AC77C0
P 9200 1250
F 0 "R35" V 9280 1250 50  0000 C CNN
F 1 "100k" V 9200 1250 50  0000 C CNN
F 2 "Resistors_THT:R_Axial_DIN0309_L9.0mm_D3.2mm_P12.70mm_Horizontal" V 9130 1250 50  0001 C CNN
F 3 "" H 9200 1250 50  0001 C CNN
	1    9200 1250
	0    1    1    0   
$EndComp
$Comp
L R R38
U 1 1 59AC77C6
P 9650 900
F 0 "R38" V 9730 900 50  0000 C CNN
F 1 "100" V 9650 900 50  0000 C CNN
F 2 "Resistors_THT:R_Axial_DIN0309_L9.0mm_D3.2mm_P12.70mm_Horizontal" V 9580 900 50  0001 C CNN
F 3 "" H 9650 900 50  0001 C CNN
	1    9650 900 
	-1   0    0    1   
$EndComp
Text GLabel 9050 1250 0    60   Input ~ 0
LED02b
$Comp
L GND #PWR024
U 1 1 59AC77CD
P 9650 1450
F 0 "#PWR024" H 9650 1200 50  0001 C CNN
F 1 "GND" H 9650 1300 50  0000 C CNN
F 2 "" H 9650 1450 50  0001 C CNN
F 3 "" H 9650 1450 50  0001 C CNN
	1    9650 1450
	1    0    0    -1  
$EndComp
Text Label 9650 700  0    60   ~ 0
LED02
$Comp
L BC547 Q1
U 1 1 59ACA7E5
P 6200 2100
F 0 "Q1" H 6400 2175 50  0000 L CNN
F 1 "BC547" H 6400 2100 50  0000 L CNN
F 2 "TO_SOT_Packages_THT:TO-92_Molded_Narrow" H 6400 2025 50  0001 L CIN
F 3 "" H 6200 2100 50  0001 L CNN
	1    6200 2100
	1    0    0    -1  
$EndComp
$Comp
L R R5
U 1 1 59ACA7EB
P 5850 2100
F 0 "R5" V 5930 2100 50  0000 C CNN
F 1 "100k" V 5850 2100 50  0000 C CNN
F 2 "Resistors_THT:R_Axial_DIN0309_L9.0mm_D3.2mm_P12.70mm_Horizontal" V 5780 2100 50  0001 C CNN
F 3 "" H 5850 2100 50  0001 C CNN
	1    5850 2100
	0    1    1    0   
$EndComp
$Comp
L R R8
U 1 1 59ACA7F1
P 6300 1750
F 0 "R8" V 6380 1750 50  0000 C CNN
F 1 "100" V 6300 1750 50  0000 C CNN
F 2 "Resistors_THT:R_Axial_DIN0309_L9.0mm_D3.2mm_P12.70mm_Horizontal" V 6230 1750 50  0001 C CNN
F 3 "" H 6300 1750 50  0001 C CNN
	1    6300 1750
	-1   0    0    1   
$EndComp
Text GLabel 5700 2100 0    60   Input ~ 0
LED03b
$Comp
L GND #PWR025
U 1 1 59ACA7F8
P 6300 2300
F 0 "#PWR025" H 6300 2050 50  0001 C CNN
F 1 "GND" H 6300 2150 50  0000 C CNN
F 2 "" H 6300 2300 50  0001 C CNN
F 3 "" H 6300 2300 50  0001 C CNN
	1    6300 2300
	1    0    0    -1  
$EndComp
Text Label 6300 1550 0    60   ~ 0
LED03
$Comp
L BC547 Q7
U 1 1 59ACA7FF
P 7550 2100
F 0 "Q7" H 7750 2175 50  0000 L CNN
F 1 "BC547" H 7750 2100 50  0000 L CNN
F 2 "TO_SOT_Packages_THT:TO-92_Molded_Narrow" H 7750 2025 50  0001 L CIN
F 3 "" H 7550 2100 50  0001 L CNN
	1    7550 2100
	1    0    0    -1  
$EndComp
$Comp
L R R17
U 1 1 59ACA805
P 7200 2100
F 0 "R17" V 7280 2100 50  0000 C CNN
F 1 "100k" V 7200 2100 50  0000 C CNN
F 2 "Resistors_THT:R_Axial_DIN0309_L9.0mm_D3.2mm_P12.70mm_Horizontal" V 7130 2100 50  0001 C CNN
F 3 "" H 7200 2100 50  0001 C CNN
	1    7200 2100
	0    1    1    0   
$EndComp
$Comp
L R R20
U 1 1 59ACA80B
P 7650 1750
F 0 "R20" V 7730 1750 50  0000 C CNN
F 1 "100" V 7650 1750 50  0000 C CNN
F 2 "Resistors_THT:R_Axial_DIN0309_L9.0mm_D3.2mm_P12.70mm_Horizontal" V 7580 1750 50  0001 C CNN
F 3 "" H 7650 1750 50  0001 C CNN
	1    7650 1750
	-1   0    0    1   
$EndComp
Text GLabel 7050 2100 0    60   Input ~ 0
LED04b
$Comp
L GND #PWR026
U 1 1 59ACA812
P 7650 2300
F 0 "#PWR026" H 7650 2050 50  0001 C CNN
F 1 "GND" H 7650 2150 50  0000 C CNN
F 2 "" H 7650 2300 50  0001 C CNN
F 3 "" H 7650 2300 50  0001 C CNN
	1    7650 2300
	1    0    0    -1  
$EndComp
Text Label 7650 1550 0    60   ~ 0
LED04
$Comp
L BC547 Q13
U 1 1 59ACA81A
P 8900 2100
F 0 "Q13" H 9100 2175 50  0000 L CNN
F 1 "BC547" H 9100 2100 50  0000 L CNN
F 2 "TO_SOT_Packages_THT:TO-92_Molded_Narrow" H 9100 2025 50  0001 L CIN
F 3 "" H 8900 2100 50  0001 L CNN
	1    8900 2100
	1    0    0    -1  
$EndComp
$Comp
L R R29
U 1 1 59ACA820
P 8550 2100
F 0 "R29" V 8630 2100 50  0000 C CNN
F 1 "100k" V 8550 2100 50  0000 C CNN
F 2 "Resistors_THT:R_Axial_DIN0309_L9.0mm_D3.2mm_P12.70mm_Horizontal" V 8480 2100 50  0001 C CNN
F 3 "" H 8550 2100 50  0001 C CNN
	1    8550 2100
	0    1    1    0   
$EndComp
$Comp
L R R32
U 1 1 59ACA826
P 9000 1750
F 0 "R32" V 9080 1750 50  0000 C CNN
F 1 "100" V 9000 1750 50  0000 C CNN
F 2 "Resistors_THT:R_Axial_DIN0309_L9.0mm_D3.2mm_P12.70mm_Horizontal" V 8930 1750 50  0001 C CNN
F 3 "" H 9000 1750 50  0001 C CNN
	1    9000 1750
	-1   0    0    1   
$EndComp
Text GLabel 8400 2100 0    60   Input ~ 0
LED05b
$Comp
L GND #PWR027
U 1 1 59ACA82D
P 9000 2300
F 0 "#PWR027" H 9000 2050 50  0001 C CNN
F 1 "GND" H 9000 2150 50  0000 C CNN
F 2 "" H 9000 2300 50  0001 C CNN
F 3 "" H 9000 2300 50  0001 C CNN
	1    9000 2300
	1    0    0    -1  
$EndComp
Text Label 9000 1550 0    60   ~ 0
LED05
$Comp
L BC547 Q5
U 1 1 59ACAE02
P 6850 3050
F 0 "Q5" H 7050 3125 50  0000 L CNN
F 1 "BC547" H 7050 3050 50  0000 L CNN
F 2 "TO_SOT_Packages_THT:TO-92_Molded_Narrow" H 7050 2975 50  0001 L CIN
F 3 "" H 6850 3050 50  0001 L CNN
	1    6850 3050
	1    0    0    -1  
$EndComp
$Comp
L R R12
U 1 1 59ACAE08
P 6500 3050
F 0 "R12" V 6580 3050 50  0000 C CNN
F 1 "100k" V 6500 3050 50  0000 C CNN
F 2 "Resistors_THT:R_Axial_DIN0309_L9.0mm_D3.2mm_P12.70mm_Horizontal" V 6430 3050 50  0001 C CNN
F 3 "" H 6500 3050 50  0001 C CNN
	1    6500 3050
	0    1    1    0   
$EndComp
$Comp
L R R15
U 1 1 59ACAE0E
P 6950 2700
F 0 "R15" V 7030 2700 50  0000 C CNN
F 1 "100" V 6950 2700 50  0000 C CNN
F 2 "Resistors_THT:R_Axial_DIN0309_L9.0mm_D3.2mm_P12.70mm_Horizontal" V 6880 2700 50  0001 C CNN
F 3 "" H 6950 2700 50  0001 C CNN
	1    6950 2700
	-1   0    0    1   
$EndComp
Text GLabel 6350 3050 0    60   Input ~ 0
LED10b
$Comp
L GND #PWR028
U 1 1 59ACAE15
P 6950 3250
F 0 "#PWR028" H 6950 3000 50  0001 C CNN
F 1 "GND" H 6950 3100 50  0000 C CNN
F 2 "" H 6950 3250 50  0001 C CNN
F 3 "" H 6950 3250 50  0001 C CNN
	1    6950 3250
	1    0    0    -1  
$EndComp
Text Label 6950 2500 0    60   ~ 0
LED10
$Comp
L BC547 Q11
U 1 1 59ACAE1C
P 8200 3050
F 0 "Q11" H 8400 3125 50  0000 L CNN
F 1 "BC547" H 8400 3050 50  0000 L CNN
F 2 "TO_SOT_Packages_THT:TO-92_Molded_Narrow" H 8400 2975 50  0001 L CIN
F 3 "" H 8200 3050 50  0001 L CNN
	1    8200 3050
	1    0    0    -1  
$EndComp
$Comp
L R R24
U 1 1 59ACAE22
P 7850 3050
F 0 "R24" V 7930 3050 50  0000 C CNN
F 1 "100k" V 7850 3050 50  0000 C CNN
F 2 "Resistors_THT:R_Axial_DIN0309_L9.0mm_D3.2mm_P12.70mm_Horizontal" V 7780 3050 50  0001 C CNN
F 3 "" H 7850 3050 50  0001 C CNN
	1    7850 3050
	0    1    1    0   
$EndComp
$Comp
L R R27
U 1 1 59ACAE28
P 8300 2700
F 0 "R27" V 8380 2700 50  0000 C CNN
F 1 "100" V 8300 2700 50  0000 C CNN
F 2 "Resistors_THT:R_Axial_DIN0309_L9.0mm_D3.2mm_P12.70mm_Horizontal" V 8230 2700 50  0001 C CNN
F 3 "" H 8300 2700 50  0001 C CNN
	1    8300 2700
	-1   0    0    1   
$EndComp
Text GLabel 7700 3050 0    60   Input ~ 0
LED11b
$Comp
L GND #PWR029
U 1 1 59ACAE2F
P 8300 3250
F 0 "#PWR029" H 8300 3000 50  0001 C CNN
F 1 "GND" H 8300 3100 50  0000 C CNN
F 2 "" H 8300 3250 50  0001 C CNN
F 3 "" H 8300 3250 50  0001 C CNN
	1    8300 3250
	1    0    0    -1  
$EndComp
Text Label 8300 2500 0    60   ~ 0
LED11
$Comp
L BC547 Q17
U 1 1 59ACAE37
P 9550 3050
F 0 "Q17" H 9750 3125 50  0000 L CNN
F 1 "BC547" H 9750 3050 50  0000 L CNN
F 2 "TO_SOT_Packages_THT:TO-92_Molded_Narrow" H 9750 2975 50  0001 L CIN
F 3 "" H 9550 3050 50  0001 L CNN
	1    9550 3050
	1    0    0    -1  
$EndComp
$Comp
L R R36
U 1 1 59ACAE3D
P 9200 3050
F 0 "R36" V 9280 3050 50  0000 C CNN
F 1 "100k" V 9200 3050 50  0000 C CNN
F 2 "Resistors_THT:R_Axial_DIN0309_L9.0mm_D3.2mm_P12.70mm_Horizontal" V 9130 3050 50  0001 C CNN
F 3 "" H 9200 3050 50  0001 C CNN
	1    9200 3050
	0    1    1    0   
$EndComp
$Comp
L R R39
U 1 1 59ACAE43
P 9650 2700
F 0 "R39" V 9730 2700 50  0000 C CNN
F 1 "100" V 9650 2700 50  0000 C CNN
F 2 "Resistors_THT:R_Axial_DIN0309_L9.0mm_D3.2mm_P12.70mm_Horizontal" V 9580 2700 50  0001 C CNN
F 3 "" H 9650 2700 50  0001 C CNN
	1    9650 2700
	-1   0    0    1   
$EndComp
Text GLabel 9050 3050 0    60   Input ~ 0
LED12b
$Comp
L GND #PWR030
U 1 1 59ACAE4A
P 9650 3250
F 0 "#PWR030" H 9650 3000 50  0001 C CNN
F 1 "GND" H 9650 3100 50  0000 C CNN
F 2 "" H 9650 3250 50  0001 C CNN
F 3 "" H 9650 3250 50  0001 C CNN
	1    9650 3250
	1    0    0    -1  
$EndComp
Text Label 9650 2500 0    60   ~ 0
LED12
$Comp
L BC547 Q2
U 1 1 59ACAE53
P 6200 4000
F 0 "Q2" H 6400 4075 50  0000 L CNN
F 1 "BC547" H 6400 4000 50  0000 L CNN
F 2 "TO_SOT_Packages_THT:TO-92_Molded_Narrow" H 6400 3925 50  0001 L CIN
F 3 "" H 6200 4000 50  0001 L CNN
	1    6200 4000
	1    0    0    -1  
$EndComp
$Comp
L R R6
U 1 1 59ACAE59
P 5850 4000
F 0 "R6" V 5930 4000 50  0000 C CNN
F 1 "100k" V 5850 4000 50  0000 C CNN
F 2 "Resistors_THT:R_Axial_DIN0309_L9.0mm_D3.2mm_P12.70mm_Horizontal" V 5780 4000 50  0001 C CNN
F 3 "" H 5850 4000 50  0001 C CNN
	1    5850 4000
	0    1    1    0   
$EndComp
$Comp
L R R9
U 1 1 59ACAE5F
P 6300 3650
F 0 "R9" V 6380 3650 50  0000 C CNN
F 1 "100" V 6300 3650 50  0000 C CNN
F 2 "Resistors_THT:R_Axial_DIN0309_L9.0mm_D3.2mm_P12.70mm_Horizontal" V 6230 3650 50  0001 C CNN
F 3 "" H 6300 3650 50  0001 C CNN
	1    6300 3650
	-1   0    0    1   
$EndComp
Text GLabel 5700 4000 0    60   Input ~ 0
LED13b
$Comp
L GND #PWR031
U 1 1 59ACAE66
P 6300 4200
F 0 "#PWR031" H 6300 3950 50  0001 C CNN
F 1 "GND" H 6300 4050 50  0000 C CNN
F 2 "" H 6300 4200 50  0001 C CNN
F 3 "" H 6300 4200 50  0001 C CNN
	1    6300 4200
	1    0    0    -1  
$EndComp
Text Label 6300 3450 0    60   ~ 0
LED13
$Comp
L BC547 Q8
U 1 1 59ACAE6D
P 7550 4000
F 0 "Q8" H 7750 4075 50  0000 L CNN
F 1 "BC547" H 7750 4000 50  0000 L CNN
F 2 "TO_SOT_Packages_THT:TO-92_Molded_Narrow" H 7750 3925 50  0001 L CIN
F 3 "" H 7550 4000 50  0001 L CNN
	1    7550 4000
	1    0    0    -1  
$EndComp
$Comp
L R R18
U 1 1 59ACAE73
P 7200 4000
F 0 "R18" V 7280 4000 50  0000 C CNN
F 1 "100k" V 7200 4000 50  0000 C CNN
F 2 "Resistors_THT:R_Axial_DIN0309_L9.0mm_D3.2mm_P12.70mm_Horizontal" V 7130 4000 50  0001 C CNN
F 3 "" H 7200 4000 50  0001 C CNN
	1    7200 4000
	0    1    1    0   
$EndComp
$Comp
L R R21
U 1 1 59ACAE79
P 7650 3650
F 0 "R21" V 7730 3650 50  0000 C CNN
F 1 "100" V 7650 3650 50  0000 C CNN
F 2 "Resistors_THT:R_Axial_DIN0309_L9.0mm_D3.2mm_P12.70mm_Horizontal" V 7580 3650 50  0001 C CNN
F 3 "" H 7650 3650 50  0001 C CNN
	1    7650 3650
	-1   0    0    1   
$EndComp
Text GLabel 7050 4000 0    60   Input ~ 0
LED14b
$Comp
L GND #PWR032
U 1 1 59ACAE80
P 7650 4200
F 0 "#PWR032" H 7650 3950 50  0001 C CNN
F 1 "GND" H 7650 4050 50  0000 C CNN
F 2 "" H 7650 4200 50  0001 C CNN
F 3 "" H 7650 4200 50  0001 C CNN
	1    7650 4200
	1    0    0    -1  
$EndComp
Text Label 7650 3450 0    60   ~ 0
LED14
$Comp
L BC547 Q14
U 1 1 59ACAE88
P 8900 4000
F 0 "Q14" H 9100 4075 50  0000 L CNN
F 1 "BC547" H 9100 4000 50  0000 L CNN
F 2 "TO_SOT_Packages_THT:TO-92_Molded_Narrow" H 9100 3925 50  0001 L CIN
F 3 "" H 8900 4000 50  0001 L CNN
	1    8900 4000
	1    0    0    -1  
$EndComp
$Comp
L R R30
U 1 1 59ACAE8E
P 8550 4000
F 0 "R30" V 8630 4000 50  0000 C CNN
F 1 "100k" V 8550 4000 50  0000 C CNN
F 2 "Resistors_THT:R_Axial_DIN0309_L9.0mm_D3.2mm_P12.70mm_Horizontal" V 8480 4000 50  0001 C CNN
F 3 "" H 8550 4000 50  0001 C CNN
	1    8550 4000
	0    1    1    0   
$EndComp
$Comp
L R R33
U 1 1 59ACAE94
P 9000 3650
F 0 "R33" V 9080 3650 50  0000 C CNN
F 1 "100" V 9000 3650 50  0000 C CNN
F 2 "Resistors_THT:R_Axial_DIN0309_L9.0mm_D3.2mm_P12.70mm_Horizontal" V 8930 3650 50  0001 C CNN
F 3 "" H 9000 3650 50  0001 C CNN
	1    9000 3650
	-1   0    0    1   
$EndComp
Text GLabel 8400 4000 0    60   Input ~ 0
LED15b
$Comp
L GND #PWR033
U 1 1 59ACAE9B
P 9000 4200
F 0 "#PWR033" H 9000 3950 50  0001 C CNN
F 1 "GND" H 9000 4050 50  0000 C CNN
F 2 "" H 9000 4200 50  0001 C CNN
F 3 "" H 9000 4200 50  0001 C CNN
	1    9000 4200
	1    0    0    -1  
$EndComp
Text Label 9000 3450 0    60   ~ 0
LED15
$Comp
L BC547 Q6
U 1 1 59ACBDD0
P 6850 5000
F 0 "Q6" H 7050 5075 50  0000 L CNN
F 1 "BC547" H 7050 5000 50  0000 L CNN
F 2 "TO_SOT_Packages_THT:TO-92_Molded_Narrow" H 7050 4925 50  0001 L CIN
F 3 "" H 6850 5000 50  0001 L CNN
	1    6850 5000
	1    0    0    -1  
$EndComp
$Comp
L R R13
U 1 1 59ACBDD6
P 6500 5000
F 0 "R13" V 6580 5000 50  0000 C CNN
F 1 "100k" V 6500 5000 50  0000 C CNN
F 2 "Resistors_THT:R_Axial_DIN0309_L9.0mm_D3.2mm_P12.70mm_Horizontal" V 6430 5000 50  0001 C CNN
F 3 "" H 6500 5000 50  0001 C CNN
	1    6500 5000
	0    1    1    0   
$EndComp
$Comp
L R R16
U 1 1 59ACBDDC
P 6950 4650
F 0 "R16" V 7030 4650 50  0000 C CNN
F 1 "100" V 6950 4650 50  0000 C CNN
F 2 "Resistors_THT:R_Axial_DIN0309_L9.0mm_D3.2mm_P12.70mm_Horizontal" V 6880 4650 50  0001 C CNN
F 3 "" H 6950 4650 50  0001 C CNN
	1    6950 4650
	-1   0    0    1   
$EndComp
Text GLabel 6350 5000 0    60   Input ~ 0
LED20b
$Comp
L GND #PWR034
U 1 1 59ACBDE3
P 6950 5200
F 0 "#PWR034" H 6950 4950 50  0001 C CNN
F 1 "GND" H 6950 5050 50  0000 C CNN
F 2 "" H 6950 5200 50  0001 C CNN
F 3 "" H 6950 5200 50  0001 C CNN
	1    6950 5200
	1    0    0    -1  
$EndComp
Text Label 6950 4450 0    60   ~ 0
LED20
$Comp
L BC547 Q12
U 1 1 59ACBDEA
P 8200 5000
F 0 "Q12" H 8400 5075 50  0000 L CNN
F 1 "BC547" H 8400 5000 50  0000 L CNN
F 2 "TO_SOT_Packages_THT:TO-92_Molded_Narrow" H 8400 4925 50  0001 L CIN
F 3 "" H 8200 5000 50  0001 L CNN
	1    8200 5000
	1    0    0    -1  
$EndComp
$Comp
L R R25
U 1 1 59ACBDF0
P 7850 5000
F 0 "R25" V 7930 5000 50  0000 C CNN
F 1 "100k" V 7850 5000 50  0000 C CNN
F 2 "Resistors_THT:R_Axial_DIN0309_L9.0mm_D3.2mm_P12.70mm_Horizontal" V 7780 5000 50  0001 C CNN
F 3 "" H 7850 5000 50  0001 C CNN
	1    7850 5000
	0    1    1    0   
$EndComp
$Comp
L R R28
U 1 1 59ACBDF6
P 8300 4650
F 0 "R28" V 8380 4650 50  0000 C CNN
F 1 "100" V 8300 4650 50  0000 C CNN
F 2 "Resistors_THT:R_Axial_DIN0309_L9.0mm_D3.2mm_P12.70mm_Horizontal" V 8230 4650 50  0001 C CNN
F 3 "" H 8300 4650 50  0001 C CNN
	1    8300 4650
	-1   0    0    1   
$EndComp
Text GLabel 7700 5000 0    60   Input ~ 0
LED21b
$Comp
L GND #PWR035
U 1 1 59ACBDFD
P 8300 5200
F 0 "#PWR035" H 8300 4950 50  0001 C CNN
F 1 "GND" H 8300 5050 50  0000 C CNN
F 2 "" H 8300 5200 50  0001 C CNN
F 3 "" H 8300 5200 50  0001 C CNN
	1    8300 5200
	1    0    0    -1  
$EndComp
Text Label 8300 4450 0    60   ~ 0
LED21
$Comp
L BC547 Q18
U 1 1 59ACBE05
P 9550 5000
F 0 "Q18" H 9750 5075 50  0000 L CNN
F 1 "BC547" H 9750 5000 50  0000 L CNN
F 2 "TO_SOT_Packages_THT:TO-92_Molded_Narrow" H 9750 4925 50  0001 L CIN
F 3 "" H 9550 5000 50  0001 L CNN
	1    9550 5000
	1    0    0    -1  
$EndComp
$Comp
L R R37
U 1 1 59ACBE0B
P 9200 5000
F 0 "R37" V 9280 5000 50  0000 C CNN
F 1 "100k" V 9200 5000 50  0000 C CNN
F 2 "Resistors_THT:R_Axial_DIN0309_L9.0mm_D3.2mm_P12.70mm_Horizontal" V 9130 5000 50  0001 C CNN
F 3 "" H 9200 5000 50  0001 C CNN
	1    9200 5000
	0    1    1    0   
$EndComp
$Comp
L R R40
U 1 1 59ACBE11
P 9650 4650
F 0 "R40" V 9730 4650 50  0000 C CNN
F 1 "100" V 9650 4650 50  0000 C CNN
F 2 "Resistors_THT:R_Axial_DIN0309_L9.0mm_D3.2mm_P12.70mm_Horizontal" V 9580 4650 50  0001 C CNN
F 3 "" H 9650 4650 50  0001 C CNN
	1    9650 4650
	-1   0    0    1   
$EndComp
Text GLabel 9050 5000 0    60   Input ~ 0
LED22b
$Comp
L GND #PWR036
U 1 1 59ACBE18
P 9650 5200
F 0 "#PWR036" H 9650 4950 50  0001 C CNN
F 1 "GND" H 9650 5050 50  0000 C CNN
F 2 "" H 9650 5200 50  0001 C CNN
F 3 "" H 9650 5200 50  0001 C CNN
	1    9650 5200
	1    0    0    -1  
$EndComp
Text Label 9650 4450 0    60   ~ 0
LED22
$Comp
L BC547 Q3
U 1 1 59ACBE21
P 6200 5900
F 0 "Q3" H 6400 5975 50  0000 L CNN
F 1 "BC547" H 6400 5900 50  0000 L CNN
F 2 "TO_SOT_Packages_THT:TO-92_Molded_Narrow" H 6400 5825 50  0001 L CIN
F 3 "" H 6200 5900 50  0001 L CNN
	1    6200 5900
	1    0    0    -1  
$EndComp
$Comp
L R R7
U 1 1 59ACBE27
P 5850 5900
F 0 "R7" V 5930 5900 50  0000 C CNN
F 1 "100k" V 5850 5900 50  0000 C CNN
F 2 "Resistors_THT:R_Axial_DIN0309_L9.0mm_D3.2mm_P12.70mm_Horizontal" V 5780 5900 50  0001 C CNN
F 3 "" H 5850 5900 50  0001 C CNN
	1    5850 5900
	0    1    1    0   
$EndComp
$Comp
L R R10
U 1 1 59ACBE2D
P 6300 5550
F 0 "R10" V 6380 5550 50  0000 C CNN
F 1 "100" V 6300 5550 50  0000 C CNN
F 2 "Resistors_THT:R_Axial_DIN0309_L9.0mm_D3.2mm_P12.70mm_Horizontal" V 6230 5550 50  0001 C CNN
F 3 "" H 6300 5550 50  0001 C CNN
	1    6300 5550
	-1   0    0    1   
$EndComp
Text GLabel 5700 5900 0    60   Input ~ 0
LED23b
$Comp
L GND #PWR037
U 1 1 59ACBE34
P 6300 6100
F 0 "#PWR037" H 6300 5850 50  0001 C CNN
F 1 "GND" H 6300 5950 50  0000 C CNN
F 2 "" H 6300 6100 50  0001 C CNN
F 3 "" H 6300 6100 50  0001 C CNN
	1    6300 6100
	1    0    0    -1  
$EndComp
Text Label 6300 5350 0    60   ~ 0
LED23
$Comp
L BC547 Q9
U 1 1 59ACBE3B
P 7550 5900
F 0 "Q9" H 7750 5975 50  0000 L CNN
F 1 "BC547" H 7750 5900 50  0000 L CNN
F 2 "TO_SOT_Packages_THT:TO-92_Molded_Narrow" H 7750 5825 50  0001 L CIN
F 3 "" H 7550 5900 50  0001 L CNN
	1    7550 5900
	1    0    0    -1  
$EndComp
$Comp
L R R19
U 1 1 59ACBE41
P 7200 5900
F 0 "R19" V 7280 5900 50  0000 C CNN
F 1 "100k" V 7200 5900 50  0000 C CNN
F 2 "Resistors_THT:R_Axial_DIN0309_L9.0mm_D3.2mm_P12.70mm_Horizontal" V 7130 5900 50  0001 C CNN
F 3 "" H 7200 5900 50  0001 C CNN
	1    7200 5900
	0    1    1    0   
$EndComp
$Comp
L R R22
U 1 1 59ACBE47
P 7650 5550
F 0 "R22" V 7730 5550 50  0000 C CNN
F 1 "100" V 7650 5550 50  0000 C CNN
F 2 "Resistors_THT:R_Axial_DIN0309_L9.0mm_D3.2mm_P12.70mm_Horizontal" V 7580 5550 50  0001 C CNN
F 3 "" H 7650 5550 50  0001 C CNN
	1    7650 5550
	-1   0    0    1   
$EndComp
Text GLabel 7050 5900 0    60   Input ~ 0
LED24b
$Comp
L GND #PWR038
U 1 1 59ACBE4E
P 7650 6100
F 0 "#PWR038" H 7650 5850 50  0001 C CNN
F 1 "GND" H 7650 5950 50  0000 C CNN
F 2 "" H 7650 6100 50  0001 C CNN
F 3 "" H 7650 6100 50  0001 C CNN
	1    7650 6100
	1    0    0    -1  
$EndComp
Text Label 7650 5350 0    60   ~ 0
LED24
$Comp
L BC547 Q15
U 1 1 59ACBE56
P 8900 5900
F 0 "Q15" H 9100 5975 50  0000 L CNN
F 1 "BC547" H 9100 5900 50  0000 L CNN
F 2 "TO_SOT_Packages_THT:TO-92_Molded_Narrow" H 9100 5825 50  0001 L CIN
F 3 "" H 8900 5900 50  0001 L CNN
	1    8900 5900
	1    0    0    -1  
$EndComp
$Comp
L R R31
U 1 1 59ACBE5C
P 8550 5900
F 0 "R31" V 8630 5900 50  0000 C CNN
F 1 "100k" V 8550 5900 50  0000 C CNN
F 2 "Resistors_THT:R_Axial_DIN0309_L9.0mm_D3.2mm_P12.70mm_Horizontal" V 8480 5900 50  0001 C CNN
F 3 "" H 8550 5900 50  0001 C CNN
	1    8550 5900
	0    1    1    0   
$EndComp
$Comp
L R R34
U 1 1 59ACBE62
P 9000 5550
F 0 "R34" V 9080 5550 50  0000 C CNN
F 1 "100" V 9000 5550 50  0000 C CNN
F 2 "Resistors_THT:R_Axial_DIN0309_L9.0mm_D3.2mm_P12.70mm_Horizontal" V 8930 5550 50  0001 C CNN
F 3 "" H 9000 5550 50  0001 C CNN
	1    9000 5550
	-1   0    0    1   
$EndComp
Text GLabel 8400 5900 0    60   Input ~ 0
LED25b
$Comp
L GND #PWR039
U 1 1 59ACBE69
P 9000 6100
F 0 "#PWR039" H 9000 5850 50  0001 C CNN
F 1 "GND" H 9000 5950 50  0000 C CNN
F 2 "" H 9000 6100 50  0001 C CNN
F 3 "" H 9000 6100 50  0001 C CNN
	1    9000 6100
	1    0    0    -1  
$EndComp
Text Label 9000 5350 0    60   ~ 0
LED25
$Comp
L BARREL_JACK J1
U 1 1 59AD2AA7
P 1000 1100
F 0 "J1" H 1000 1295 50  0000 C CNN
F 1 "BARREL_JACK" H 1000 945 50  0000 C CNN
F 2 "Connectors:BARREL_JACK" H 1000 1100 50  0001 C CNN
F 3 "" H 1000 1100 50  0001 C CNN
	1    1000 1100
	1    0    0    -1  
$EndComp
$Comp
L GND #PWR040
U 1 1 59AD3789
P 1400 1400
F 0 "#PWR040" H 1400 1150 50  0001 C CNN
F 1 "GND" H 1400 1250 50  0000 C CNN
F 2 "" H 1400 1400 50  0001 C CNN
F 3 "" H 1400 1400 50  0001 C CNN
	1    1400 1400
	1    0    0    -1  
$EndComp
$Comp
L CP C7
U 1 1 59AD5AFE
P 4700 1100
F 0 "C7" H 4725 1200 50  0000 L CNN
F 1 "1uF" H 4725 1000 50  0000 L CNN
F 2 "Capacitors_THT:CP_Radial_D6.3mm_P2.50mm" H 4738 950 50  0001 C CNN
F 3 "" H 4700 1100 50  0001 C CNN
	1    4700 1100
	1    0    0    -1  
$EndComp
$Comp
L CP C10
U 1 1 59AD5D9C
P 5700 1100
F 0 "C10" H 5725 1200 50  0000 L CNN
F 1 "47uF" H 5725 1000 50  0000 L CNN
F 2 "Capacitors_THT:CP_Radial_D6.3mm_P2.50mm" H 5738 950 50  0001 C CNN
F 3 "" H 5700 1100 50  0001 C CNN
	1    5700 1100
	1    0    0    -1  
$EndComp
$Comp
L CONN_02X06 J4
U 1 1 59AD718E
P 2450 5800
F 0 "J4" H 2450 6150 50  0000 C CNN
F 1 "sensors" H 2450 5450 50  0000 C CNN
F 2 "Pin_Headers:Pin_Header_Straight_2x06_Pitch2.54mm" H 2450 4600 50  0001 C CNN
F 3 "" H 2450 4600 50  0001 C CNN
	1    2450 5800
	1    0    0    1   
$EndComp
$Comp
L GND #PWR041
U 1 1 59AD7513
P 2750 6100
F 0 "#PWR041" H 2750 5850 50  0001 C CNN
F 1 "GND" H 2750 5950 50  0000 C CNN
F 2 "" H 2750 6100 50  0001 C CNN
F 3 "" H 2750 6100 50  0001 C CNN
	1    2750 6100
	1    0    0    -1  
$EndComp
Text GLabel 2850 5350 2    60   Output ~ 0
AIN0
Text GLabel 2150 5400 2    60   Output ~ 0
AIN1
Text GLabel 2200 5750 0    60   Output ~ 0
AIN2
Text GLabel 2200 5850 0    60   Output ~ 0
AIN3
Text GLabel 2200 5950 0    60   Output ~ 0
AIN4
Text GLabel 2200 6050 0    60   Output ~ 0
AIN5
Text Label 4050 950  0    60   ~ 0
POWER_SUPPLY
Text Label 1350 1000 0    60   ~ 0
POWER_SUPPLY
$Comp
L TEST TP7
U 1 1 59AE2FD6
P 3950 950
F 0 "TP7" H 3950 1250 50  0000 C BNN
F 1 "SUPPLY" H 3950 1200 50  0000 C CNN
F 2 "Measurement_Points:Measurement_Point_Round-TH_Big" H 3950 950 50  0001 C CNN
F 3 "" H 3950 950 50  0001 C CNN
	1    3950 950 
	1    0    0    -1  
$EndComp
$Comp
L TEST TP1
U 1 1 59AE4118
P 3300 1000
F 0 "TP1" H 3300 1300 50  0000 C BNN
F 1 "5V" H 3300 1250 50  0000 C CNN
F 2 "Measurement_Points:Measurement_Point_Round-TH_Big" H 3300 1000 50  0001 C CNN
F 3 "" H 3300 1000 50  0001 C CNN
	1    3300 1000
	1    0    0    -1  
$EndComp
$Comp
L TEST TP12
U 1 1 59AE443C
P 6000 950
F 0 "TP12" H 6000 1250 50  0000 C BNN
F 1 "3V3" H 6000 1200 50  0000 C CNN
F 2 "Measurement_Points:Measurement_Point_Round-TH_Big" H 6000 950 50  0001 C CNN
F 3 "" H 6000 950 50  0001 C CNN
	1    6000 950 
	1    0    0    -1  
$EndComp
Wire Wire Line
	1600 4150 1550 4150
Wire Wire Line
	1550 4150 1550 4350
Wire Wire Line
	1600 4250 1550 4250
Connection ~ 1550 4250
Wire Wire Line
	1950 1300 1950 1500
Wire Wire Line
	1950 1500 3050 1500
Wire Wire Line
	2500 1500 2500 1300
Wire Wire Line
	3050 1500 3050 1300
Connection ~ 2500 1500
Wire Wire Line
	2900 1000 3300 1000
Wire Wire Line
	3050 1000 3050 900 
Wire Wire Line
	3500 2650 4650 2650
Wire Wire Line
	3500 2550 4650 2550
Connection ~ 4750 2450
Connection ~ 4750 2750
Wire Wire Line
	5100 2450 5100 2250
Wire Wire Line
	5100 2750 5100 2900
Wire Wire Line
	5400 2250 5400 2900
Connection ~ 5400 2600
Wire Wire Line
	3650 4850 3650 4950
Wire Wire Line
	3650 4950 3950 4950
Wire Wire Line
	3650 5250 4350 5250
Connection ~ 3950 5250
Wire Wire Line
	3500 3400 3750 3400
Wire Wire Line
	1300 2550 1600 2550
Wire Wire Line
	600  1900 600  1950
Wire Wire Line
	600  1950 1600 1950
Connection ~ 900  1950
Wire Wire Line
	1600 2250 1300 2250
Wire Wire Line
	1300 2250 1300 1950
Connection ~ 1300 1950
Wire Wire Line
	4250 5350 4250 5250
Connection ~ 4250 5250
Wire Wire Line
	5250 5250 5250 5350
Wire Wire Line
	1850 4850 2000 4850
Wire Wire Line
	5600 950  6000 950 
Wire Wire Line
	2500 4850 2650 4850
Wire Wire Line
	2650 4850 2650 4800
Wire Wire Line
	3500 2050 4100 2050
Wire Wire Line
	3500 2450 4100 2450
Wire Wire Line
	3500 2150 4100 2150
Wire Wire Line
	3500 3750 3750 3750
Wire Wire Line
	3500 2250 4100 2250
Wire Wire Line
	3500 2350 4100 2350
Wire Wire Line
	11000 750  11100 750 
Wire Wire Line
	11100 850  11000 850 
Connection ~ 11100 850 
Wire Wire Line
	11100 950  11000 950 
Connection ~ 11100 950 
Wire Wire Line
	11100 1050 11000 1050
Connection ~ 11100 1050
Wire Wire Line
	11100 1150 11000 1150
Connection ~ 11100 1150
Wire Wire Line
	11100 1250 11000 1250
Connection ~ 11100 1250
Wire Wire Line
	11100 1350 11000 1350
Connection ~ 11100 1350
Wire Wire Line
	11100 1450 11000 1450
Connection ~ 11100 1450
Wire Wire Line
	11100 1550 11000 1550
Connection ~ 11100 1550
Wire Wire Line
	11100 1650 11000 1650
Connection ~ 11100 1650
Wire Wire Line
	11100 1750 11000 1750
Connection ~ 11100 1750
Wire Wire Line
	11100 1850 11000 1850
Connection ~ 11100 1850
Wire Wire Line
	11100 1950 11000 1950
Connection ~ 11100 1950
Wire Wire Line
	11100 2050 11000 2050
Connection ~ 11100 2050
Wire Wire Line
	11100 2150 11000 2150
Connection ~ 11100 2150
Wire Wire Line
	11100 2250 11000 2250
Connection ~ 11100 2250
Wire Wire Line
	11100 2350 11000 2350
Connection ~ 11100 2350
Wire Wire Line
	11100 2450 11000 2450
Connection ~ 11100 2450
Wire Wire Line
	11100 2550 11000 2550
Connection ~ 11100 2550
Wire Wire Line
	11100 2650 11000 2650
Connection ~ 11100 2650
Wire Wire Line
	1050 7250 1050 7200
Wire Wire Line
	1050 7200 1150 7200
Wire Wire Line
	3100 7300 3100 7250
Wire Wire Line
	3100 7250 3200 7250
Wire Wire Line
	5200 7300 5200 7250
Wire Wire Line
	5200 7250 5300 7250
Wire Wire Line
	6200 6550 6350 6550
Wire Wire Line
	6350 6550 6350 6500
Wire Wire Line
	4100 6550 4250 6550
Wire Wire Line
	4250 6550 4250 6500
Wire Wire Line
	2200 6450 2200 6500
Wire Wire Line
	2200 6500 2050 6500
Wire Wire Line
	950  6500 1150 6500
Wire Wire Line
	3000 6550 3200 6550
Wire Wire Line
	5100 6550 5300 6550
Connection ~ 3650 4950
Connection ~ 3050 1000
Connection ~ 5100 2450
Connection ~ 5100 2750
Wire Wire Line
	3500 2800 3700 2800
Wire Wire Line
	3500 2900 3700 2900
Wire Wire Line
	3500 3000 3700 3000
Wire Wire Line
	3500 3100 3700 3100
Wire Wire Line
	3500 3200 3700 3200
Wire Wire Line
	3500 3300 3700 3300
Wire Wire Line
	3500 4050 4750 4050
Wire Wire Line
	3500 4150 4750 4150
Wire Wire Line
	3500 4250 4750 4250
Wire Wire Line
	3500 3550 3750 3550
Wire Wire Line
	3500 3650 3750 3650
Wire Wire Line
	1000 5650 1150 5650
Wire Wire Line
	1000 5750 1150 5750
Wire Wire Line
	1000 5850 1150 5850
Wire Wire Line
	1000 5950 1150 5950
Wire Wire Line
	3500 1950 4100 1950
Wire Wire Line
	3500 3950 4650 3950
Wire Wire Line
	11100 650  11100 2650
Wire Wire Line
	10500 750  10050 750 
Wire Wire Line
	10500 850  10050 850 
Wire Wire Line
	10500 950  10050 950 
Wire Wire Line
	10500 1050 10050 1050
Wire Wire Line
	10050 1150 10500 1150
Wire Wire Line
	10500 1250 10050 1250
Wire Wire Line
	10500 1350 10050 1350
Wire Wire Line
	10500 1450 10050 1450
Wire Wire Line
	10500 1550 10050 1550
Wire Wire Line
	10500 1750 10050 1750
Wire Wire Line
	10500 1850 10050 1850
Wire Wire Line
	10500 1950 10050 1950
Wire Wire Line
	10500 2050 10050 2050
Wire Wire Line
	10500 2150 10050 2150
Wire Wire Line
	10500 2250 10050 2250
Wire Wire Line
	10500 2350 10050 2350
Wire Wire Line
	10500 2450 10050 2450
Wire Wire Line
	10500 2550 10050 2550
Wire Wire Line
	8300 750  8300 600 
Wire Wire Line
	9650 750  9650 600 
Wire Wire Line
	6950 750  6950 550 
Connection ~ 11100 750 
Wire Wire Line
	7650 1600 7650 1450
Wire Wire Line
	9000 1600 9000 1450
Wire Wire Line
	6300 1600 6300 1400
Wire Wire Line
	8300 2550 8300 2400
Wire Wire Line
	9650 2550 9650 2400
Wire Wire Line
	6950 2550 6950 2350
Wire Wire Line
	7650 3500 7650 3350
Wire Wire Line
	9000 3500 9000 3350
Wire Wire Line
	6300 3500 6300 3300
Wire Wire Line
	8300 4500 8300 4350
Wire Wire Line
	9650 4500 9650 4350
Wire Wire Line
	6950 4500 6950 4300
Wire Wire Line
	7650 5400 7650 5250
Wire Wire Line
	9000 5400 9000 5250
Wire Wire Line
	6300 5400 6300 5200
Wire Wire Line
	1300 1200 1400 1200
Wire Wire Line
	1400 1100 1400 1400
Wire Wire Line
	1300 1100 1400 1100
Connection ~ 1400 1200
Wire Wire Line
	4700 1250 4700 1450
Wire Wire Line
	5700 1450 5700 1250
Wire Wire Line
	4700 1450 5700 1450
Connection ~ 5200 1450
Wire Wire Line
	5200 1400 5200 1450
Connection ~ 5700 950 
Wire Wire Line
	2700 5750 2750 5750
Wire Wire Line
	2750 5850 2700 5850
Connection ~ 2750 5850
Wire Wire Line
	2750 5950 2700 5950
Connection ~ 2750 5950
Wire Wire Line
	2750 6050 2700 6050
Connection ~ 2750 6050
Connection ~ 4700 950 
Wire Wire Line
	3950 950  4800 950 
Connection ~ 1950 1000
Wire Wire Line
	1300 1000 2100 1000
Wire Wire Line
	5700 900  5700 950 
$Comp
L TEST TP10
U 1 1 59AE5C70
P 4450 4350
F 0 "TP10" H 4450 4650 50  0000 C BNN
F 1 "CLK0" H 4450 4600 50  0000 C CNN
F 2 "Measurement_Points:Measurement_Point_Round-TH_Big" H 4450 4350 50  0001 C CNN
F 3 "" H 4450 4350 50  0001 C CNN
	1    4450 4350
	-1   0    0    1   
$EndComp
$Comp
L TEST TP9
U 1 1 59AE63FB
P 4250 4350
F 0 "TP9" H 4250 4650 50  0000 C BNN
F 1 "CLK1" H 4250 4600 50  0000 C CNN
F 2 "Measurement_Points:Measurement_Point_Round-TH_Big" H 4250 4350 50  0001 C CNN
F 3 "" H 4250 4350 50  0001 C CNN
	1    4250 4350
	-1   0    0    1   
$EndComp
$Comp
L TEST TP8
U 1 1 59AE6508
P 4050 4350
F 0 "TP8" H 4050 4650 50  0000 C BNN
F 1 "CLK2" H 4050 4600 50  0000 C CNN
F 2 "Measurement_Points:Measurement_Point_Round-TH_Big" H 4050 4350 50  0001 C CNN
F 3 "" H 4050 4350 50  0001 C CNN
	1    4050 4350
	-1   0    0    1   
$EndComp
Wire Wire Line
	4050 4350 4050 4250
Connection ~ 4050 4250
Wire Wire Line
	4250 4350 4250 4150
Connection ~ 4250 4150
Wire Wire Line
	4450 4350 4450 4050
Connection ~ 4450 4050
Wire Wire Line
	4650 2550 4650 2450
Wire Wire Line
	4650 2450 5100 2450
Wire Wire Line
	4650 2650 4650 2750
Wire Wire Line
	4650 2750 5100 2750
$Comp
L TEST TP2
U 1 1 59AE8986
P 3500 1650
F 0 "TP2" H 3500 1950 50  0000 C BNN
F 1 "OUT0" H 3500 1900 50  0000 C CNN
F 2 "Measurement_Points:Measurement_Point_Round-TH_Big" H 3500 1650 50  0001 C CNN
F 3 "" H 3500 1650 50  0001 C CNN
	1    3500 1650
	1    0    0    -1  
$EndComp
Wire Wire Line
	3500 1650 3500 1950
Connection ~ 3500 1950
$Comp
L TEST TP3
U 1 1 59AE8EFC
P 3600 1850
F 0 "TP3" H 3600 2150 50  0000 C BNN
F 1 "OUT1" H 3600 2100 50  0000 C CNN
F 2 "Measurement_Points:Measurement_Point_Round-TH_Big" H 3600 1850 50  0001 C CNN
F 3 "" H 3600 1850 50  0001 C CNN
	1    3600 1850
	1    0    0    -1  
$EndComp
$Comp
L TEST TP4
U 1 1 59AE9018
P 3700 1650
F 0 "TP4" H 3700 1950 50  0000 C BNN
F 1 "OUT3" H 3700 1900 50  0000 C CNN
F 2 "Measurement_Points:Measurement_Point_Round-TH_Big" H 3700 1650 50  0001 C CNN
F 3 "" H 3700 1650 50  0001 C CNN
	1    3700 1650
	1    0    0    -1  
$EndComp
$Comp
L TEST TP5
U 1 1 59AE9139
P 3800 1850
F 0 "TP5" H 3800 2150 50  0000 C BNN
F 1 "OUT4" H 3800 2100 50  0000 C CNN
F 2 "Measurement_Points:Measurement_Point_Round-TH_Big" H 3800 1850 50  0001 C CNN
F 3 "" H 3800 1850 50  0001 C CNN
	1    3800 1850
	1    0    0    -1  
$EndComp
$Comp
L TEST TP6
U 1 1 59AE9259
P 3900 1650
F 0 "TP6" H 3900 1950 50  0000 C BNN
F 1 "OUT5" H 3900 1900 50  0000 C CNN
F 2 "Measurement_Points:Measurement_Point_Round-TH_Big" H 3900 1650 50  0001 C CNN
F 3 "" H 3900 1650 50  0001 C CNN
	1    3900 1650
	1    0    0    -1  
$EndComp
Wire Wire Line
	3600 1850 3600 2050
Connection ~ 3600 2050
Wire Wire Line
	3700 1650 3700 2250
Connection ~ 3700 2250
Wire Wire Line
	3800 1850 3800 2350
Connection ~ 3800 2350
Wire Wire Line
	3900 1650 3900 2450
Connection ~ 3900 2450
$Comp
L TEST TP11
U 1 1 59AEA105
P 4600 3700
F 0 "TP11" H 4600 4000 50  0000 C BNN
F 1 "OUT2" H 4600 3950 50  0000 C CNN
F 2 "Measurement_Points:Measurement_Point_Round-TH_Big" H 4600 3700 50  0001 C CNN
F 3 "" H 4600 3700 50  0001 C CNN
	1    4600 3700
	1    0    0    -1  
$EndComp
Wire Wire Line
	4600 3700 4600 3950
Connection ~ 4600 3950
$Comp
L +5V #PWR042
U 1 1 59ABE5A9
P 1800 5500
F 0 "#PWR042" H 1800 5350 50  0001 C CNN
F 1 "+5V" H 1800 5640 50  0000 C CNN
F 2 "" H 1800 5500 50  0001 C CNN
F 3 "" H 1800 5500 50  0001 C CNN
	1    1800 5500
	1    0    0    -1  
$EndComp
$Comp
L R R2
U 1 1 59ABE71E
P 2950 5550
F 0 "R2" V 3030 5550 50  0000 C CNN
F 1 "10k" V 2950 5550 50  0000 C CNN
F 2 "Resistors_THT:R_Axial_DIN0309_L9.0mm_D3.2mm_P12.70mm_Horizontal" V 2880 5550 50  0001 C CNN
F 3 "" H 2950 5550 50  0001 C CNN
	1    2950 5550
	0    -1   -1   0   
$EndComp
$Comp
L GND #PWR043
U 1 1 59ABE85E
P 3100 5550
F 0 "#PWR043" H 3100 5300 50  0001 C CNN
F 1 "GND" H 3100 5400 50  0000 C CNN
F 2 "" H 3100 5550 50  0001 C CNN
F 3 "" H 3100 5550 50  0001 C CNN
	1    3100 5550
	0    -1   -1   0   
$EndComp
Wire Wire Line
	1800 5550 2200 5550
Wire Wire Line
	2700 5550 2800 5550
Wire Wire Line
	2750 5550 2750 5350
Wire Wire Line
	2750 5350 2850 5350
Connection ~ 2750 5550
Wire Wire Line
	2750 5650 2750 6100
$Comp
L R R1
U 1 1 59AC0D24
P 1950 5650
F 0 "R1" V 1950 5850 50  0000 C CNN
F 1 "10k" V 1950 5650 50  0000 C CNN
F 2 "Resistors_THT:R_Axial_DIN0309_L9.0mm_D3.2mm_P12.70mm_Horizontal" V 1880 5650 50  0001 C CNN
F 3 "" H 1950 5650 50  0001 C CNN
	1    1950 5650
	0    -1   -1   0   
$EndComp
Wire Wire Line
	1800 5500 1800 5650
Connection ~ 1800 5550
Wire Wire Line
	2100 5650 2200 5650
Wire Wire Line
	2150 5400 2150 5650
Connection ~ 2150 5650
Wire Wire Line
	2700 5650 2750 5650
Connection ~ 2750 5750
$Comp
L TEST TP13
U 1 1 59ACADF9
P 750 2950
F 0 "TP13" H 750 3250 50  0000 C BNN
F 1 "GND" H 750 3200 50  0000 C CNN
F 2 "Measurement_Points:Measurement_Point_Round-TH_Big" H 750 2950 50  0001 C CNN
F 3 "" H 750 2950 50  0001 C CNN
	1    750  2950
	1    0    0    -1  
$EndComp
$Comp
L GND #PWR044
U 1 1 59ACB333
P 750 2950
F 0 "#PWR044" H 750 2700 50  0001 C CNN
F 1 "GND" H 750 2800 50  0000 C CNN
F 2 "" H 750 2950 50  0001 C CNN
F 3 "" H 750 2950 50  0001 C CNN
	1    750  2950
	1    0    0    -1  
$EndComp
$Comp
L ATMEGA328P-PU U2
U 1 1 59A08B83
P 2500 3050
F 0 "U2" H 1750 4300 50  0000 L BNN
F 1 "ATMEGA328P-PU" H 2900 1650 50  0000 L BNN
F 2 "Housings_DIP:DIP-28_W7.62mm_Socket" H 2500 3050 50  0001 C CIN
F 3 "" H 2500 3050 50  0001 C CNN
	1    2500 3050
	1    0    0    -1  
$EndComp
Wire Wire Line
	3500 3850 4150 3850
Text Label 4150 3850 0    60   ~ 0
err_led
$Comp
L R R41
U 1 1 59AD5AA0
P 750 3500
F 0 "R41" V 830 3500 50  0000 C CNN
F 1 "100" V 750 3500 50  0000 C CNN
F 2 "Resistors_THT:R_Axial_DIN0309_L9.0mm_D3.2mm_P2.54mm_Vertical" V 680 3500 50  0001 C CNN
F 3 "" H 750 3500 50  0001 C CNN
	1    750  3500
	1    0    0    -1  
$EndComp
$Comp
L LED D2
U 1 1 59AD5C33
P 750 3800
F 0 "D2" H 750 3900 50  0000 C CNN
F 1 "LED" H 750 3700 50  0000 C CNN
F 2 "LEDs:LED_D3.0mm" H 750 3800 50  0001 C CNN
F 3 "" H 750 3800 50  0001 C CNN
	1    750  3800
	0    -1   -1   0   
$EndComp
$Comp
L GND #PWR045
U 1 1 59AD5DD9
P 750 3950
F 0 "#PWR045" H 750 3700 50  0001 C CNN
F 1 "GND" H 750 3800 50  0000 C CNN
F 2 "" H 750 3950 50  0001 C CNN
F 3 "" H 750 3950 50  0001 C CNN
	1    750  3950
	1    0    0    -1  
$EndComp
Wire Wire Line
	750  3350 900  3350
Text Label 900  3350 0    60   ~ 0
err_led
$EndSCHEMATC
